Using table: minsets_1
1, fm.size = 117148, mf.size = 1801370
1, ids/all_remaining/set/b/firsthalf/xad, 23329.673406867, only minset
1, ids/all_remaining/set/b/firsthalf/xad, 23557.59233112
Using table: minsets_1
1, fm.size = 89935, mf.size = 1801370
1, ids/all_remaining/set/b/firsthalf/xaa, 23924.524300118, only minset
1, ids/all_remaining/set/b/firsthalf/xaa, 24134.494015482
Using table: minsets_1
1, fm.size = 122680, mf.size = 1801370
1, ids/all_remaining/set/b/firsthalf/xah, 24553.921184362, only minset
1, ids/all_remaining/set/b/firsthalf/xah, 24776.503811074
Using table: minsets_1
1, fm.size = 133644, mf.size = 1801370
1, ids/all_remaining/set/b/firsthalf/xai, 23440.006724878, only minset
1, ids/all_remaining/set/b/firsthalf/xai, 23653.657427599
Using table: minsets_1
1, fm.size = 102782, mf.size = 1801370
1, ids/all_remaining/set/b/firsthalf/xag, 24510.528351929, only minset
1, ids/all_remaining/set/b/firsthalf/xag, 24716.995609975
Using table: minsets_1
1, fm.size = 124679, mf.size = 1801370
1, ids/all_remaining/set/b/firsthalf/xal, 24043.543844916, only minset
1, ids/all_remaining/set/b/firsthalf/xal, 24249.913213159
Using table: minsets_1
1, fm.size = 112163, mf.size = 1801370
1, ids/all_remaining/set/b/firsthalf/xam, 24044.530164855, only minset
1, ids/all_remaining/set/b/firsthalf/xam, 24226.112485392
Using table: minsets_1
1, fm.size = 111152, mf.size = 1801370
1, ids/all_remaining/set/b/firsthalf/xak, 23960.604821589, only minset
1, ids/all_remaining/set/b/firsthalf/xak, 24163.494527024
Using table: minsets_1
1, fm.size = 111434, mf.size = 1801370
1, ids/all_remaining/set/b/firsthalf/xaj, 23930.318320355, only minset
1, ids/all_remaining/set/b/firsthalf/xaj, 24136.365543483
Using table: minsets_1
1, fm.size = 114794, mf.size = 1801370
1, ids/all_remaining/set/b/firsthalf/xae, 23916.944332172, only minset
1, ids/all_remaining/set/b/firsthalf/xae, 24133.268513142
Using table: minsets_1
1, fm.size = 108286, mf.size = 1801370
1, ids/all_remaining/set/b/firsthalf/xab, 25615.850016372, only minset
1, ids/all_remaining/set/b/firsthalf/xab, 25822.337804704
Using table: minsets_1
1, fm.size = 120746, mf.size = 1801370
1, ids/all_remaining/set/b/firsthalf/xac, 24788.384414601, only minset
1, ids/all_remaining/set/b/firsthalf/xac, 25004.976726551
Using table: minsets_1
1, fm.size = 112729, mf.size = 1801370
1, ids/all_remaining/set/b/firsthalf/xaf, 23563.209917544, only minset
1, ids/all_remaining/set/b/firsthalf/xaf, 23767.785921966
