NOTICE:  CREATE TABLE will create implicit sequence "features_107_id_seq" for serial column "features_107.id"
NOTICE:  CREATE TABLE / PRIMARY KEY will create implicit index "features_107_pkey" for table "features_107"
EXP: 0.033610047
0: 0.00228609
1: 0.09603359
2: 92.055440569
3: 0.000850788
4: 1436.490445632
5: 0.06512194
6: 23.966004269
7: 0.591175888
