545167
549432
688306
713613
1023135
1218894
1286422
1329016
1930500
2045641
2287840
2961175
3516846
3595920
5132226
5506121
5854181
5985394
6199963
6266664
6339976
6422469
6538915
6963172
7312477
7565607
7669939
7776430
7930778
8192918
8610581
8774757
