488
565
1258
2071
2393
2583
3147
3183
4218
4883
7813
8052
8461
9028
9225
9809
10384
11012
11395
11457
12587
13170
13276
15267
15309
16287
16409
17935
18110
18913
19783
19915
20887
21705
23558
24538
25614
27572
27890
29104
29815
30646
30898
30913
31029
31043
31541
31565
31865
33498
33504
34008
34294
34670
36827
36898
37423
37473
39792
39863
40017
40177
40646
40941
41443
41601
41781
43667
44856
44975
45120
45251
45930
47213
47324
47836
48338
49386
49818
51005
51261
51743
51766
52209
52489
53803
53833
54471
54762
56176
56343
56370
56555
57002
57153
57609
59022
59565
61451
62078
62406
62565
62596
62662
62999
63271
63333
63341
64136
65619
66731
67155
69043
70266
70669
72684
74452
76035
76574
77981
78525
80450
80775
81233
81234
83831
84564
92107
92291
92457
93051
94858
95189
101661
102325
104622
106811
107812
110247
110468
110808
111014
111517
111708
112573
113551
114482
114512
114930
115318
115327
115373
115573
116198
116298
116404
116948
117183
117429
117907
118378
118552
118577
119434
119531
121521
122020
122117
123604
124192
124555
125202
125476
126186
126189
126473
126844
128310
128472
129200
129266
129882
131530
132122
133631
134374
134929
136780
138219
139248
139558
140215
140332
141111
141706
143104
143416
143914
143969
146845
148310
148375
148578
148674
149333
152519
156072
156197
156825
157399
158225
158923
158931
160329
162470
163281
163282
163492
163603
164160
164412
165703
166387
168574
169061
169807
169886
171436
171706
172206
174771
175230
175279
175526
177754
178124
179071
179773
179927
180086
180859
180952
181330
181459
181906
182197
183229
183283
183980
184214
185464
185553
186016
186622
195201
196244
196338
197349
198021
198255
199146
199223
199532
200199
200411
201098
201910
201968
202112
204191
204208
204421
204478
204617
204695
205228
206710
207474
207873
209324
209487
209608
209702
209716
209725
209794
209923
209994
210003
210005
214823
215960
216234
217059
217207
217215
218676
219591
220504
220528
221960
222174
226055
227208
228176
228443
228564
229427
231229
231597
231998
232103
232989
233140
233178
234601
235630
237578
238425
238695
239331
239395
241107
241192
241283
241709
242051
243303
244036
245152
245475
245570
245650
245815
246395
246613
247394
247693
247911
247988
248110
248488
248754
249174
249269
249281
249549
250015
250340
250497
250820
252127
252244
252794
252914
253030
253795
254534
255399
255900
256634
256945
257044
258381
258662
259046
259226
260061
260266
260407
260689
260919
260920
263099
263986
265616
265871
267962
268770
268948
269225
270111
270351
271739
271990
272065
272141
272596
272600
272691
272748
273073
273749
275397
275462
276395
276487
276680
276784
278913
279174
279374
279668
279931
280283
280828
281133
282287
282421
283614
284283
285371
288360
289018
289083
290178
290336
290701
290890
291846
292114
292256
292469
292592
292745
293140
293210
293543
293600
294196
294460
294632
294694
295197
295553
295589
295597
295870
295971
296039
297616
297646
297703
297946
298122
299665
299693
302280
303899
304032
304481
304747
305655
306864
307437
307807
310443
310716
310987
311301
311832
312046
312533
313063
313137
313237
315324
315516
315573
317305
317339
317704
321097
321865
322104
322119
323244
323641
323772
327959
328008
328653
329253
330037
330806
330852
330914
332416
333101
333936
333978
334229
334360
334379
334452
336894
336989
337105
337153
339466
340164
340357
343357
343504
344183
344382
344574
344628
345688
346989
347254
348057
348142
348538
349458
349562
349671
350337
354949
355194
355702
355909
356366
357172
358174
359553
359633
359746
359960
360285
361322
361407
361700
362276
363642
363800
364001
364184
364189
364345
365491
366242
366734
369522
369540
369729
370086
370317
370449
370553
370697
371592
371639
372379
372654
372821
374217
375129
376013
376070
376476
377502
377955
378792
379123
379155
380229
380524
381390
381425
381630
381785
382177
382540
382563
383171
383529
384053
384274
387605
389070
390403
391006
392526
394347
394728
394842
396225
396706
396958
397669
397834
398441
399556
399707
399794
400196
400808
401372
402109
403437
405185
406662
407034
407040
407141
407171
407250
407779
408858
409943
411895
412332
412936
413564
414046
414197
414833
416289
417179
418804
419075
419198
420266
420812
420893
422455
422516
424089
424507
424980
425600
428597
428949
429536
430286
430479
431131
431145
431327
431823
432003
433120
433691
434040
436435
438371
438800
439056
439717
439986
439997
441032
442603
442724
443302
444791
445098
445158
445333
445387
445942
446573
446901
447193
447222
447298
447509
448775
448974
450722
451147
451285
452842
453620
453937
454692
454836
456841
457542
457706
457801
457893
457965
458386
460927
461570
462460
463035
463107
466688
466791
467876
468154
469478
470170
470261
470514
472785
473012
473269
474917
475522
475793
475848
476204
476508
476899
478265
479423
479566
480235
481711
482637
485626
486111
486284
486637
487084
487858
487957
488194
491055
491262
492383
492487
492514
492656
492854
495465
495830
495900
496022
496078
496296
496529
496994
497088
497495
497704
498178
498643
499345
499962
500109
500234
500246
500279
500397
500479
500549
500769
500780
502127
502569
504560
504791
504887
505385
506884
507486
508066
508626
508955
509805
510487
510794
511101
511490
512381
513679
514511
514715
515072
515076
516074
516451
517059
518170
518200
518551
518638
519006
519009
519109
519252
519361
519664
519781
522450
523899
524913
525404
525587
527030
528125
528347
528830
529796
530117
532392
534114
534251
534446
536605
538263
538933
539998
540640
541161
541701
543164
543178
543712
544137
544236
544237
545288
546774
546776
549353
549777
550826
551235
551926
552365
553502
554206
555933
556001
556188
556733
556735
556908
557023
558144
558311
558910
558930
560117
560148
561052
561442
563187
563952
564039
564717
564927
565517
565617
565827
568991
571874
572420
572602
573799
574067
575305
576314
578237
578682
579375
580171
582345
585568
585614
586557
586600
588218
588976
589113
589879
590405
590495
590702
591736
599104
599542
599987
601501
601691
601969
604038
607414
607934
609767
610397
611601
611894
612582
613964
614180
614892
615844
616400
616585
616591
617364
617851
618071
618614
619522
620399
622315
622676
624388
625132
625198
626556
626927
626940
626973
628426
628481
629444
630182
630764
632066
633266
633425
634341
635157
636081
637015
637331
637333
637822
641363
643099
643187
643271
644592
646062
647895
648113
649272
652472
652502
657746
658426
658451
660298
661416
666063
666074
669745
670428
671291
672227
672375
673165
673386
676109
676815
677062
678446
680492
680529
681653
682391
682537
682832
685757
685813
688660
688909
688917
691397
691666
691777
695689
696058
696849
697502
699087
699406
699683
700337
700490
702196
702326
703810
705093
705856
706025
706323
706484
706997
707013
707016
707238
709618
709714
710515
711053
711835
712295
713013
713467
713902
713942
714115
714253
714526
715034
715056
715262
715561
716109
716528
716659
717031
717200
717505
718056
718438
718851
719472
719587
721482
722084
722664
722899
723456
724271
724442
724672
724814
725351
726591
727313
727898
729116
729246
729780
732826
733984
734690
734882
735098
735465
735688
736068
736609
737267
737641
737888
738764
740645
741071
741072
741751
742193
742716
742862
743063
743301
743345
743831
744581
744893
745257
745651
746918
747141
747693
748672
748685
748800
748879
749645
749945
750164
750253
750893
750999
751343
751631
751812
751932
752117
753092
753428
753593
755984
756318
756637
757682
759866
760245
760517
762110
763030
769673
770265
770892
771818
774122
774587
776136
776363
776934
777350
779189
779359
780076
780917
780980
782582
783174
783380
785118
785209
785682
785796
786000
786190
787188
787371
787395
788080
788168
789102
789379
791465
791643
791778
792480
793519
794739
795294
796001
796265
798037
798823
798836
798878
799503
800327
800621
800760
800812
800948
801450
802598
802642
802665
802737
803300
806744
807412
807639
809078
809563
809928
811663
811837
812101
812130
812632
813956
814006
814185
814683
815448
816129
816841
817761
818492
819322
820039
821119
822026
822770
824364
824670
825439
827555
830776
830796
832924
834193
834567
834660
835280
836378
837700
839507
841145
843019
844146
844158
844522
844916
844953
844963
845294
845592
845971
847104
848013
848069
848450
850113
852753
853323
853553
854311
856250
859355
860300
861207
862663
862922
862941
864064
864623
864689
864879
865049
865863
866333
867837
868887
869632
870125
870138
870220
870308
872058
872870
874113
874339
874340
875725
876248
876938
877630
878122
882459
882478
882646
882828
883265
884714
885840
885845
886830
887229
887304
888406
888423
888540
888829
889100
892483
892900
893196
893345
893480
894508
895840
895965
895970
895988
897316
898515
898925
899133
900105
900296
900966
901007
903081
903458
903945
903975
905511
905798
906939
907538
907658
907680
907905
908244
909530
909693
911875
912220
912259
912276
912299
912477
912495
912745
912886
913686
915920
917324
918574
918610
918684
919269
920253
920397
921099
922103
922667
923607
924159
924529
924572
924652
924848
925063
925147
925540
926710
928722
929229
929354
929489
930749
931015
931221
933282
934123
934745
935878
936504
936873
938861
939381
939990
940203
940244
940957
941001
941011
941285
941488
942337
942870
944127
945437
945718
946789
946922
947830
948239
948402
948807
949326
950390
951103
951185
952035
952116
952937
953111
953716
954007
954455
955696
956598
958546
958717
959011
959117
959614
959683
960532
961694
961793
963274
965298
965540
966837
968108
968573
969143
969414
970175
972949
973780
974649
974966
975114
975145
975176
977221
977749
977926
978086
978094
978161
979054
979284
979776
979906
980651
982098
982174
982637
982877
983192
983684
984895
985033
985421
986325
986724
990676
990876
993082
993108
993248
993559
993650
996139
997424
999106
1002802
1003127
1003725
1003965
1003978
1004731
1004820
1004888
1005803
1005919
1006786
1007605
1008941
1010565
1010777
1011143
1011277
1011513
1012251
1012610
1012769
1012789
1012997
1013476
1014258
1014522
1014872
1014940
1014947
1015328
1016106
1016310
1017511
1017513
1018064
1019353
1019729
1020265
1020542
1021348
1021776
1021835
1023016
1023061
1023195
1023716
1024131
1025008
1025633
1025690
1025721
1025992
1026563
1026960
1028139
1028370
1028993
1029809
1030616
1030693
1031056
1031978
1032285
1032536
1033164
1033555
1033984
1034139
1034907
1035783
1036067
1036292
1036838
1037594
1038067
1038867
1039470
1040230
1040276
1040277
1040297
1040529
1041649
1042580
1043669
1043904
1044336
1044418
1046119
1046728
1047009
1047189
1048673
1050394
1051415
1053235
1054522
1055514
1055517
1055538
1055583
1055586
1056849
1057762
1058445
1059482
1059638
1062465
1062818
1063688
1065240
1066194
1066416
1067143
1067650
1068209
1068537
1068949
1069221
1069367
1069499
1069502
1071188
1072040
1072771
1073145
1073883
1075004
1075484
1075679
1076165
1076185
1076708
1076980
1077619
1077622
1078147
1078229
1079079
1079978
1080459
1080773
1080886
1081551
1081656
1085061
1085703
1086712
1087194
1087212
1087793
1090142
1090567
1091690
1091999
1092050
1092284
1094857
1095823
1096746
1096824
1097349
1097431
1098337
1098373
1099075
1099339
1099427
1100694
1100756
1101199
1107709
1109798
1110199
1110656
1112037
1115452
1115785
1117716
1117916
1117946
1118462
1121230
1121489
1122289
1122389
1122562
1123048
1123207
1127130
1129301
1137823
1141642
1141736
1142748
1142976
1143653
1145526
1145887
1147067
1147201
1148199
1148640
1149358
1150174
1150764
1150775
1151146
1151384
1151559
1152335
1152585
1152660
1152683
1154030
1155722
1156221
1156679
1157015
1160459
1161482
1161519
1163400
1164270
1164842
1165219
1165494
1166848
1170201
1170238
1170259
1170478
1171683
1173035
1173349
1173450
1174590
1175338
1175730
1175927
1176226
1176414
1177388
1177637
1178288
1179070
1179913
1181340
1181464
1182524
1182983
1183079
1183206
1183746
1184117
1184475
1186389
1189947
1190025
1190661
1193967
1194086
1194090
1194204
1194466
1194592
1194616
1194948
1195536
1195784
1196994
1197410
1197713
1197921
1198480
1198594
1199427
1202743
1203779
1203844
1204854
1206015
1206227
1208499
1209099
1209754
1210819
1211230
1211695
1211704
1213618
1213715
1214055
1214437
1215340
1215443
1216259
1216836
1217007
1217340
1217849
1220708
1222597
1223188
1225398
1227114
1228232
1229916
1230085
1230828
1232594
1232655
1233143
1234079
1234346
1235420
1235625
1236473
1236545
1236672
1237245
1238265
1238446
1238674
1240145
1241851
1242137
1245172
1245310
1245725
1246880
1247841
1248468
1250655
1250856
1250991
1251902
1252408
1252992
1253481
1254725
1255033
1256346
1256826
1257547
1258639
1258696
1260148
1260864
1261503
1263020
1265637
1266547
1266864
1267724
1268347
1271422
1273201
1278656
1279118
1279204
1281321
1281361
1281960
1283236
1283341
1283431
1283558
1283687
1284445
1284478
1285336
1285372
1285936
1286249
1286551
1286708
1287455
1288151
1288292
1288326
1289046
1289134
1289472
1289597
1291176
1291322
1291669
1291709
1291897
1292675
1292895
1293120
1293226
1293296
1293421
1293748
1294255
1295038
1295619
1296241
1297396
1297657
1298211
1298415
1298662
1299333
1299637
1299902
1299981
1301032
1302029
1303247
1303908
1305477
1305519
1306124
1306291
1307323
1307693
1309110
1309210
1310476
1313491
1314098
1314558
1314614
1315890
1316178
1316220
1316681
1316762
1317003
1317617
1318241
1318557
1318826
1319066
1319751
1320387
1321049
1321241
1323321
1323426
1323783
1324046
1324471
1324848
1324899
1326664
1326932
1327046
1327456
1327500
1327725
1327793
1328120
1328403
1328933
1329311
1329853
1330021
1330542
1331673
1331819
1332044
1332423
1332905
1332951
1333072
1334254
1335329
1336075
1336831
1337319
1337803
1338446
1338540
1338835
1339063
1339508
1339749
1340892
1341157
1341902
1342289
1342481
1342686
1342698
1343476
1343543
1343818
1343948
1344141
1344297
1344522
1344651
1344702
1344746
1344922
1345646
1346065
1346082
1346732
1346824
1347319
1347349
1347412
1347853
1348312
1348512
1348934
1349479
1349556
1349898
1350187
1350313
1350715
1350737
1351713
1352386
1355277
1355363
1355530
1356211
1356354
1357152
1357878
1357928
1359939
1360979
1361266
1362681
1363949
1364116
1364389
1364448
1364617
1366290
1366877
1367682
1368491
1368943
1371384
1371809
1372614
1373159
1373494
1373680
1373960
1374198
1374815
1374903
1375153
1375697
1376388
1376770
1376829
1376864
1377001
1377495
1377499
1377562
1378336
1378598
1379410
1379547
1380376
1381609
1381723
1382066
1382834
1383076
1383393
1383495
1385072
1385251
1386663
1387501
1389506
1390556
1390695
1391401
1391511
1391862
1392826
1392916
1393530
1393658
1397226
1398375
1399371
1400139
1400716
1400735
1402193
1402345
1404007
1404767
1404838
1405077
1405248
1406295
1410073
1410969
1411154
1411942
1412261
1412870
1413684
1413907
1414562
1414749
1414830
1414849
1415108
1415401
1415553
1416657
1416676
1417160
1417646
1418108
1418285
1418413
1419024
1420285
1420339
1420491
1421412
1421433
1421621
1421786
1422246
1424356
1424383
1424948
1425681
1425832
1427093
1427546
1427867
1428081
1429222
1430036
1431015
1431045
1431103
1431225
1431309
1431477
1431503
1431517
1431611
1431662
1431792
1431825
1431834
1433246
1433382
1434031
1437379
1439398
1441770
1442993
1443323
1443482
1445072
1445737
1447875
1448489
1449181
1451347
1451820
1453959
1454406
1454832
1455199
1456064
1456696
1456982
1457062
1458147
1458915
1459210
1459227
1459781
1460821
1461502
1461857
1461984
1462171
1463780
1464623
1464691
1464890
1465036
1465221
1465366
1467376
1468632
1469255
1469622
1470869
1472074
1472831
1472880
1473095
1475881
1476013
1476566
1476869
1477035
1477782
1478805
1480334
1480532
1481537
1482009
1482076
1482278
1482779
1483507
1484531
1484791
1484880
1485287
1485584
1486598
1486710
1488332
1490329
1490848
1491337
1491483
1494100
1494737
1494767
1494893
1496378
1498178
1498250
1499122
1500186
1500445
1500690
1501013
1501559
1502222
1503274
1503753
1503977
1504109
1504994
1505653
1508391
1509268
1509714
1510390
1511224
1513354
1515426
1519702
1520857
1521021
1521826
1523414
1524143
1525171
1525349
1525538
1525955
1526388
1526741
1526971
1527707
1528425
1528550
1528766
1529459
1529644
1531107
1531771
1532193
1532673
1532681
1532687
1534533
1534805
1535906
1539471
1539626
1541347
1542770
1543234
1544475
1545361
1545732
1546145
1548388
1548516
1549713
1549788
1550044
1550401
1550581
1551489
1551727
1552150
1552383
1552827
1553350
1553399
1553422
1554075
1554445
1554592
1554635
1554652
1556684
1557639
1558300
1559059
1559166
1559417
1560614
1571253
1574313
1575112
1576183
1576332
1576990
1577427
1577751
1578449
1579714
1580827
1581904
1583187
1583216
1583868
1583988
1584059
1586100
1586486
1589853
1590279
1590937
1591799
1593759
1594102
1594258
1594773
1594973
1595719
1596363
1596389
1596400
1596981
1597024
1597382
1597405
1598297
1599239
1599340
1604329
1604844
1606454
1606760
1607220
1607346
1607448
1607988
1608793
1609154
1609386
1609596
1609689
1610077
1610139
1610614
1611390
1611670
1612023
1612102
1612330
1612742
1612795
1612931
1613849
1615639
1616983
1618093
1618439
1619004
1619191
1619407
1619851
1619893
1620222
1620267
1620863
1621983
1622125
1622240
1622806
1623701
1623765
1624086
1624257
1624696
1625111
1625591
1625785
1628854
1630962
1631907
1632179
1633014
1633962
1638373
1638386
1639626
1639733
1640952
1641463
1642190
1642373
1643102
1644538
1645010
1645459
1645465
1645609
1647150
1648296
1648301
1648473
1648926
1650100
1650408
1651643
1651885
1652050
1652151
1652884
1653029
1656715
1657273
1657375
1660163
1660963
1661770
1662203
1662836
1663826
1664825
1664835
1665461
1665522
1666583
1668285
1668298
1668769
1668863
1669000
1669367
1671519
1672414
1672420
1672628
1672754
1673564
1674005
1674584
1676465
1676490
1677363
1677693
1678346
1678469
1679219
1679653
1679855
1680613
1680737
1681860
1683119
1683695
1683988
1684462
1684705
1684985
1685249
1685404
1687102
1688901
1689189
1689500
1690432
1713278
1717799
1748108
1748112
1749366
1751650
1751719
1752617
1752761
1753285
1753399
1754711
1755610
1755945
1756335
1756752
1757021
1757072
1757553
1757696
1757813
1758366
1758640
1759023
1759729
1760979
1761857
1761914
1761992
1762247
1762461
1763334
1763507
1764109
1764495
1764528
1764763
1765078
1765248
1766221
1766557
1766702
1767689
1768214
1769410
1769877
1770982
1771202
1773922
1774080
1774666
1775001
1775045
1775126
1775950
1776318
1777180
1777389
1778249
1778381
1778765
1779019
1779173
1779335
1779994
1781452
1783818
1784560
1785134
1785247
1786584
1786728
1787297
1794338
1802018
1802027
1802792
1810803
1813368
1827127
1830188
1830381
1836106
1836107
1847484
1847550
1849689
1850221
1850702
1850848
1850969
1850981
1851297
1851655
1852098
1852432
1852733
1853976
1854295
1855403
1856502
1856903
1859275
1865956
1866567
1868586
1870460
1871623
1871683
1871875
1872060
1872827
1873810
1874068
1874558
1874570
1874989
1875326
1876671
1876930
1876981
1878134
1878191
1878532
1878784
1878939
1879433
1879553
1879662
1879722
1879836
1882061
1882220
1883044
1883267
1883586
1884442
1885472
1888294
1898788
1899561
1900652
1901532
1902012
1902589
1902971
1903976
1905131
1905611
1905989
1906051
1906467
1909058
1910178
1911121
1911186
1912889
1913021
1913572
1913778
1915865
1917369
1917693
1919326
1920458
1920833
1921740
1921899
1922373
1922699
1923264
1923899
1925339
1925996
1927667
1928760
1929253
1929455
1931885
1931901
1932384
1935002
1935722
1938123
1938225
1938603
1938624
1938839
1940730
1941205
1941514
1942120
1942498
1942533
1944282
1944868
1944984
1946295
1946453
1947009
1947396
1947710
1947767
1947932
1948654
1950158
1950696
1951092
1951133
1952256
1952314
1952612
1953073
1953422
1955368
1955705
1955898
1956319
1956457
1956935
1957046
1957242
1957840
1958577
1959065
1960183
1960819
1961127
1963730
1963733
1963790
1963808
1965135
1965360
1965744
1966027
1966127
1966474
1966787
1966944
1967408
1967414
1969955
1970046
1970654
1971128
1971692
1971983
1972385
1973256
1974432
1976602
1977200
1981226
1983238
1983890
1984282
1986930
1987003
1987028
1987436
1987635
1988151
1988261
1989890
1991158
1991822
1992012
1993342
1994848
1995115
1995159
1995205
1995537
1996318
1996788
1998664
1999804
1999813
2001726
2001878
2002088
2006773
2007460
2008643
2010073
2011351
2012379
2012455
2012795
2013652
2013860
2015003
2015634
2017920
2020591
2022470
2022591
2023838
2024246
2024672
2025188
2026363
2026778
2026885
2027017
2028769
2029942
2030038
2030252
2031498
2032693
2033453
2034082
2034657
2036446
2036556
2037246
2037587
2037727
2037779
2038248
2038988
2039356
2042747
2043247
2043540
2043574
2043772
2043814
2044088
2044382
2046462
2046572
2047550
2047775
2047797
2048391
2048777
2049403
2049745
2050802
2050833
2050856
2051174
2051885
2052279
2052374
2053274
2054700
2057004
2057486
2058618
2058938
2060165
2060841
2060932
2061313
2062350
2062523
2063230
2063366
2065399
2067977
2069782
2070699
2071298
2071360
2071446
2071663
2071735
2072376
2072742
2074006
2074095
2074714
2077719
2080782
2082242
2082928
2084233
2084654
2085147
2086775
2088817
2088837
2088939
2089601
2090242
2091202
2091293
2091363
2093454
2093909
2094518
2095071
2097346
2097859
2097934
2100144
2101165
2102748
2103344
2103359
2103487
2105265
2106162
2106597
2106599
2108883
2108957
2110350
2110623
2111743
2112434
2112559
2112561
2114232
2118551
2118782
2119695
2120411
2122041
2122401
2123191
2123284
2126104
2126441
2127338
2127568
2128033
2132014
2132908
2133042
2133474
2133586
2134476
2134749
2135198
2136867
2137544
2138329
2138759
2139861
2139865
2139910
2141420
2141484
2142422
2142512
2142772
2142927
2142973
2143147
2143487
2146391
2147908
2147964
2148167
2148835
2149108
2149336
2149436
2149501
2149523
2149788
2149882
2150186
2150838
2151655
2152099
2152453
2152645
2152943
2153783
2153877
2154274
2154789
2154812
2154991
2156598
2156932
2157315
2157776
2160310
2160532
2160726
2162517
2163738
2166061
2166423
2166962
2167452
2167481
2167550
2168610
2168611
2168940
2169699
2171093
2172682
2173580
2176459
2176532
2177565
2180629
2181662
2182060
2182650
2182902
2183495
2183665
2183737
2183766
2183878
2186046
2186169
2189709
2192879
2194091
2194431
2195131
2195692
2196292
2196793
2197083
2197912
2198499
2198786
2199216
2199402
2199752
2199816
2200123
2200734
2200814
2200853
2200984
2201228
2201355
2201609
2202460
2203442
2206111
2208301
2209146
2210500
2210691
2211164
2211853
2212116
2212905
2213552
2214382
2214392
2215181
2215345
2216289
2216405
2216855
2217067
2218734
2220577
2220647
2220894
2221369
2221550
2221591
2221603
2221706
2221885
2222300
2223612
2223891
2224520
2226025
2226842
2227260
2227358
2228663
2228718
2229038
2229686
2229788
2232648
2233468
2234896
2235053
2235668
2236056
2236687
2237497
2237801
2238112
2238867
2239094
2239388
2239511
2239801
2240089
2240674
2240744
2241398
2241551
2242200
2242996
2243339
2243506
2244598
2244688
2247048
2247240
2247553
2247960
2247979
2248251
2250227
2250303
2250396
2251186
2251415
2252220
2252709
2253495
2253778
2254057
2254802
2254879
2255406
2255948
2256240
2256527
2258582
2258866
2262120
2262543
2264471
2264495
2264668
2265533
2265891
2266541
2267424
2267572
2268568
2269073
2269247
2269532
2269886
2270206
2270217
2271001
2271317
2271363
2271368
2271921
2273203
2273676
2274809
2277175
2279202
2279608
2281502
2282925
2283102
2283359
2283416
2283933
2284046
2284446
2284633
2284954
2285746
2287960
2288024
2289357
2290604
2291338
2291389
2291816
2292307
2292468
2292721
2292854
2293697
2294084
2297129
2297308
2297353
2297945
2298284
2298529
2298669
2299188
2299833
2300218
2301283
2301483
2303365
2303864
2304999
2305948
2306099
2315001
2316154
2316160
2319293
2319517
2320917
2321758
2323585
2323902
2323930
2323955
2325020
2326035
2327020
2327536
2327625
2328345
2328428
2328465
2329520
2330054
2340132
2342696
2344380
2353307
2372776
2403365
2419098
2444287
2451492
2452434
2453987
2454057
2465393
2470911
2475094
2487928
2500684
2501902
2502860
2509290
2509506
2511722
2512909
2513040
2513460
2516578
2516611
2517383
2518597
2518944
2519429
2520237
2528059
2532892
2533063
2533189
2533214
2533567
2534304
2534479
2535676
2535927
2536228
2538146
2538888
2540439
2540997
2541004
2541033
2542147
2542206
2542401
2542671
2542983
2543835
2544294
2544690
2545662
2545804
2549138
2556321
2557176
2557471
2557662
2557745
2559378
2560708
2562208
2562269
2562310
2563894
2582847
2582909
2582966
2584518
2584975
2585296
2586226
2586655
2586917
2587130
2587300
2587444
2587614
2589297
2589427
2591005
2591173
2594489
2596557
2596569
2597442
2600461
2601008
2603249
2603344
2603644
2603785
2604170
2604793
2605978
2606056
2606196
2607157
2608090
2609063
2610537
2612081
2612187
2613751
2615361
2615626
2615957
2616446
2617272
2617604
2617881
2618957
2619762
2620902
2622115
2622377
2623276
2623304
2623582
2623691
2623699
2624033
2625267
2626342
2626682
2627216
2627397
2627403
2629182
2629339
2629649
2630391
2636348
2638314
2638607
2639212
2641438
2641440
2641603
2642834
2642970
2643348
2643439
2643892
2644348
2645276
2645544
2645827
2645922
2648472
2649236
2650226
2650762
2651434
2651835
2653708
2653811
2654950
2657610
2658853
2659221
2659638
2664344
2665492
2667697
2668474
2669072
2669252
2669575
2669595
2669659
2670142
2670201
2670274
2670291
2670732
2670845
2671129
2671370
2671805
2673594
2673992
2674536
2674575
2677516
2678170
2678361
2678650
2679916
2680385
2681013
2682919
2689549
2689681
2689687
2690135
2691084
2691374
2693850
2694090
2694699
2697197
2700587
2702290
2706838
2707767
2710911
2710971
2711198
2711872
2712061
2712358
2714041
2714177
2714858
2718030
2720420
2721112
2721233
2722795
2724118
2725454
2725475
2728080
2730585
2730864
2730900
2735325
2737086
2738581
2739163
2739259
2739396
2739704
2739894
2740062
2740484
2741008
2742399
2742937
2743094
2745483
2748479
2748585
2749196
2749797
2750280
2750906
2751482
2752282
2753503
2754179
2755381
2756225
2757204
2757688
2757962
2758129
2758517
2758866
2760660
2761994
2762543
2762753
2764097
2764143
2764461
2764665
2765706
2765847
2766227
2766599
2767037
2767940
2768323
2768666
2768893
2769049
2769362
2769586
2769668
2770583
2771680
2771831
2773610
2774184
2774613
2774810
2777348
2777604
2778075
2778343
2778762
2789363
2789945
2790218
2790602
2790656
2791061
2791955
2793212
2794092
2794965
2795865
2796888
2798877
2799308
2799325
2800514
2800703
2800893
2801203
2801302
2801303
2801680
2802051
2802251
2804099
2805183
2805737
2807631
2808085
2810421
2810796
2811029
2811184
2811371
2811634
2811834
2813226
2813251
2817131
2817651
2817906
2817937
2820953
2821876
2822163
2823110
2823295
2823908
2825099
2828219
2828445
2829433
2830715
2831869
2832185
2832299
2832402
2834322
2834913
2835172
2835395
2836147
2836597
2836800
2838645
2839001
2839504
2840776
2841071
2841533
2842504
2842530
2844144
2844855
2846550
2846640
2847766
2848157
2848401
2848606
2852208
2853731
2854141
2854655
2855448
2857268
2857530
2857685
2858584
2860840
2862497
2864186
2864268
2864357
2864371
2865224
2865485
2865786
2865883
2866146
2868866
2869429
2869717
2871173
2872853
2873411
2873507
2874553
2874755
2875666
2877066
2878242
2878598
2879209
2881272
2881329
2881406
2881449
2881733
2882356
2882479
2882577
2882603
2883145
2885243
2885887
2885893
2885953
2886471
2886499
2886724
2887826
2890107
2891513
2892372
2892990
2893377
2895690
2895907
2895925
2895963
2896575
2898204
2898466
2898494
2898941
2898988
2899941
2900177
2900466
2900531
2901125
2903826
2905650
2906213
2907570
2907872
2908165
2908410
2908455
2908924
2909485
2910517
2910926
2911440
2924595
2928302
2928659
2928665
2945190
2945207
2945402
2947317
2947599
2947834
2950748
2950806
2950832
2951581
2951645
2954295
2954719
2956315
2956353
2956786
2957886
2958217
2959467
2959797
2959819
2960147
2960951
2962219
2962739
2963293
2963837
2964259
2964525
2964813
2964847
2966434
2966456
2966803
2967261
2979309
3010534
3011381
3013062
3013767
3014115
3014217
3014560
3014987
3015056
3017354
3017854
3018714
3019064
3019578
3019856
3020530
3021131
3021201
3022438
3022776
3024055
3024227
3024739
3025013
3025432
3026743
3027675
3028599
3028776
3030410
3030480
3030491
3031115
3033321
3036054
3036345
3036416
3038526
3038823
3041666
3042927
3043438
3044456
3044488
3044866
3045617
3045787
3046799
3047653
3048933
3049085
3049346
3049472
3049821
3050192
3050369
3050733
3050777
3050807
3050995
3051332
3051585
3051843
3051912
3052101
3052425
3052579
3052765
3053169
3053427
3053508
3053537
3053763
3053775
3054373
3054854
3054909
3055634
3056060
3056244
3056407
3056653
3056672
3057528
3057574
3057768
3058241
3058283
3058692
3059020
3059069
3059148
3061072
3061477
3064347
3065200
3065490
3065566
3067721
3068343
3068456
3069917
3069992
3070683
3071128
3073044
3073667
3075920
3075929
3076213
3076365
3076943
3079774
3079890
3080139
3080700
3080726
3080900
3081602
3082339
3083775
3084572
3085312
3085514
3085570
3086432
3086805
3087064
3087215
3087993
3088245
3088561
3090683
3092779
3092947
3094048
3095315
3095976
3096092
3096396
3096406
3097708
3098090
3098711
3099136
3102664
3102686
3102736
3103517
3103545
3104067
3104928
3105116
3105402
3105666
3106007
3106824
3108534
3109060
3109707
3109851
3109913
3110044
3110368
3110606
3110629
3110693
3110916
3111031
3111040
3111058
3111349
3111543
3111693
3113410
3113793
3114007
3114029
3114053
3114091
3114161
3114253
3114813
3114985
3115712
3115913
3116404
3116586
3117818
3117876
3120061
3120444
3122226
3122310
3122555
3123216
3123863
3128581
3128597
3129398
3130110
3135250
3135605
3136231
3138308
3138366
3138767
3139720
3139958
3140164
3140265
3141543
3143833
3144214
3144652
3144992
3145462
3146828
3147043
3147238
3148117
3148411
3149196
3149670
3150058
3155429
3155785
3155839
3156148
3157965
3160564
3161300
3162927
3162972
3165383
3165700
3166743
3167322
3167354
3168664
3169422
3169994
3171120
3172435
3173713
3174991
3175989
3181012
3182122
3182723
3182744
3183437
3183615
3183622
3184046
3185418
3189499
3189913
3190825
3190915
3190946
3192600
3194874
3196624
3197235
3197574
3198208
3199026
3199181
3199248
3199702
3200766
3201366
3201578
3203092
3203335
3204361
3204587
3204594
3205748
3208213
3208237
3208445
3208630
3208707
3208820
3209198
3209463
3210198
3210419
3210488
3210664
3210715
3210725
3210727
3211714
3212473
3212873
3214561
3215478
3217784
3218223
3220524
3220697
3222156
3222575
3222640
3222719
3222924
3222998
3223005
3224016
3224121
3224852
3225774
3225786
3225800
3226125
3226572
3226873
3227095
3227541
3228733
3230635
3230931
3231481
3231897
3232241
3232361
3232894
3233457
3233830
3234310
3234381
3234710
3235716
3236359
3236819
3236869
3236928
3236946
3238710
3239320
3240077
3240352
3243835
3243974
3244054
3244328
3244600
3244624
3244914
3245370
3246272
3246287
3246685
3247095
3247414
3247602
3247973
3250198
3253790
3253802
3254306
3254595
3256822
3260773
3261773
3261937
3262139
3262392
3263750
3266642
3268547
3269373
3269747
3270151
3270303
3270306
3271103
3271512
3272690
3272901
3274488
3274548
3274939
3275032
3275959
3276028
3276090
3276741
3277185
3278471
3278570
3279350
3280510
3281824
3283090
3284194
3285536
3285780
3286698
3288008
3288703
3289202
3289472
3292276
3293203
3293271
3294046
3294690
3294959
3296379
3297042
3297379
3298219
3298485
3298510
3298866
3298891
3299516
3300253
3301607
3304469
3304605
3304767
3304840
3306973
3307317
3309933
3310106
3310349
3311050
3311548
3311708
3311751
3312030
3313024
3313362
3313737
3313849
3315352
3315501
3315665
3316745
3317544
3318045
3321711
3322953
3325811
3326263
3326384
3326770
3327614
3327724
3327867
3327904
3330539
3331226
3332225
3332880
3333367
3334023
3334369
3334701
3335085
3335638
3335676
3335801
3336533
3337142
3339478
3339649
3341105
3344658
3345087
3345139
3345277
3346480
3349359
3349420
3350034
3350302
3350476
3350629
3351599
3352955
3353507
3353750
3353772
3353779
3354216
3354870
3355499
3355835
3356880
3358654
3359336
3360634
3361935
3361996
3362283
3364061
3364412
3368200
3368771
3371007
3371755
3373182
3373302
3374265
3375245
3375649
3375967
3380178
3389288
3389533
3391611
3392122
3392234
3392265
3392309
3394318
3394387
3394655
3395264
3395276
3395712
3395916
3396351
3396987
3396996
3397304
3397494
3397664
3397688
3397700
3397973
3398917
3399218
3399463
3400189
3400356
3400502
3403296
3404981
3405255
3412490
3412750
3412933
3413809
3415405
3415887
3415962
3416582
3418092
3418310
3419244
3420300
3420815
3420949
3424360
3426443
3429378
3429680
3430025
3430128
3444941
3445123
3445612
3445613
3445745
3445849
3448748
3449265
3451816
3452099
3452365
3455331
3455721
3455807
3456158
3456397
3457300
3457853
3457907
3457963
3458588
3458596
3459518
3459926
3460681
3461227
3462135
3462140
3462265
3462370
3462712
3463512
3464403
3465036
3466020
3466287
3466369
3467725
3467817
3468227
3468638
3468880
3469205
3470486
3470636
3471376
3471461
3472509
3472620
3472796
3472886
3474005
3474599
3475866
3476053
3476225
3476788
3479105
3479540
3479992
3483246
3483310
3485334
3486132
3487108
3488021
3488525
3490319
3490618
3490862
3491464
3491998
3492801
3493204
3493269
3494026
3494498
3495242
3495268
3495565
3497192
3497465
3497717
3499233
3499826
3500143
3500171
3500476
3500569
3502036
3502273
3502768
3505485
3506587
3508817
3511570
3513225
3513234
3513894
3514481
3514869
3516408
3517211
3517817
3517950
3518524
3519461
3519704
3520762
3521680
3522074
3527065
3527524
3528185
3528397
3529386
3529889
3529906
3531552
3531669
3531861
3532086
3532348
3533275
3539120
3539972
3541405
3541441
3542968
3542976
3544298
3544338
3545303
3545672
3545728
3545748
3545783
3546078
3546853
3546933
3547008
3547164
3549036
3549242
3549770
3549840
3550048
3550832
3551775
3553621
3554164
3554356
3557591
3557662
3558149
3558509
3559066
3560789
3560864
3561463
3561600
3562175
3565733
3565893
3568141
3568353
3569317
3569789
3570008
3572045
3575013
3575496
3575640
3576049
3578007
3578056
3578075
3579200
3580706
3582530
3583634
3583959
3584670
3585715
3590486
3593056
3593292
3593599
3594549
3594933
3595493
3598583
3598910
3598982
3599264
3599730
3599821
3600566
3600745
3600992
3601468
3601878
3601892
3602671
3602887
3604754
3604896
3604950
3605588
3606119
3606437
3606452
3606491
3606494
3606751
3607439
3607985
3608981
3611347
3611739
3612203
3612620
3613462
3614529
3615618
3615692
3615723
3616713
3616936
3617816
3618029
3618329
3623700
3624683
3626758
3626965
3627727
3628142
3628164
3628317
3628649
3628684
3629423
3629493
3629966
3629976
3630079
3630147
3630616
3630860
3631278
3631476
3632404
3632847
3632934
3633237
3633427
3634653
3635181
3635495
3637091
3637668
3639714
3640208
3643034
3643531
3649228
3649264
3649726
3651911
3655335
3655950
3655975
3656530
3657243
3657543
3657577
3657771
3658078
3658254
3658293
3658842
3659145
3659541
3660325
3661230
3661285
3663218
3666511
3667350
3667945
3669802
3670247
3670261
3670423
3671114
3671309
3673678
3674166
3674602
3674701
3675769
3677062
3677321
3678299
3679076
3679569
3680019
3680044
3681714
3682098
3683889
3686452
3686624
3686653
3687532
3688458
3690116
3691327
3692323
3695651
3696162
3696363
3696675
3696697
3697216
3697254
3697380
3697785
3698733
3699358
3699403
3699423
3699815
3700305
3706980
3707900
3708028
3708461
3709177
3709628
3709733
3710222
3710257
3711502
3712020
3712231
3712397
3714111
3714112
3714262
3714572
3714964
3715033
3715104
3715159
3715472
3716677
3716792
3717041
3717846
3718297
3718453
3718464
3719310
3719766
3720016
3720858
3721371
3721633
3721858
3723113
3723221
3724282
3724623
3725003
3725327
3727095
3727399
3727793
3731458
3731748
3732741
3733166
3734617
3739416
3740282
3743195
3746085
3747053
3748346
3748688
3752605
3753126
3753172
3753241
3754126
3755201
3755752
3756151
3757314
3759316
3760436
3761432
3761658
3765437
3767915
3770113
3770866
3771118
3771290
3771367
3773178
3773330
3773473
3773514
3774604
3774880
3778364
3778365
3780016
3781310
3781333
3781371
3790616
3790788
3791194
3791443
3792150
3792531
3793775
3795247
3795592
3798467
3799799
3800079
3801131
3802863
3802957
3803696
3803788
3803896
3804421
3804712
3805230
3805235
3805549
3805952
3806778
3806853
3807388
3807575
3807754
3809665
3809978
3810076
3810558
3812106
3812454
3812589
3812591
3814540
3846097
3861696
3874849
3879448
3879548
3879772
3880991
3885953
3886231
3889448
3889744
3889961
3895706
3897374
3897628
3897800
3898602
3899860
3900198
3900540
3901743
3902213
3902354
3903937
3905246
3906747
3907106
3907323
3909409
3912348
3913147
3913400
3913691
3913753
3917616
3917913
3918165
3918698
3919191
3919208
3921234
3922766
3923261
3923556
3923847
3923859
3924283
3924843
3925754
3925801
3925987
3926108
3926329
3926783
3929463
3929487
3930882
3932520
3933946
3933974
3935367
3935737
3935778
3939004
3940513
3940859
3943282
3945060
3946066
3946975
3947041
3948716
3948855
3949011
3949507
3950440
3950988
3951591
3951659
3952103
3953849
3958321
3967684
3969586
3969587
3969732
3969806
3970112
3970412
3970841
3971475
3972427
3973562
3974382
3975600
3976554
3977038
3978445
3979691
3981751
3982576
3985479
3986290
3986447
3988304
3990013
3990088
3990090
3990731
3991203
3991267
3995201
3995318
3996448
3998344
3998841
3999116
3999802
3999935
4000199
4001871
4007005
4008532
4008594
4009559
4010075
4010723
4010839
4011479
4011588
4013215
4013293
4013436
4015055
4015093
4016044
4016584
4017810
4020286
4020789
4022170
4024299
4026846
4027861
4028096
4028257
4029102
4029784
4029847
4031077
4032054
4032066
4035691
4036631
4038863
4039588
4040227
4040413
4042072
4042247
4043974
4044521
4044984
4045989
4046314
4047213
4047526
4049029
4050359
4052932
4054096
4054156
4054178
4054319
4054597
4054623
4055023
4055032
4056077
4056466
4056571
4057642
4058443
4060715
4061119
4061584
4063607
4064390
4064571
4064848
4065631
4065779
4065986
4066224
4067010
4067201
4067425
4068039
4069142
4069213
4070683
4073263
4073357
4073541
4074121
4075266
4075442
4076505
4077003
4079777
4081622
4083731
4084062
4084824
4085022
4085321
4086219
4086385
4087230
4087526
4088253
4088627
4088705
4089082
4089465
4089602
4089719
4090690
4090701
4091081
4091368
4091521
4091976
4092501
4092613
4093005
4093373
4093815
4094459
4095735
4096336
4096573
4096755
4096842
4096872
4096934
4097012
4097489
4097542
4097952
4098662
4099047
4099829
4100110
4100930
4102068
4102729
4104028
4105329
4105758
4106405
4106437
4106464
4107888
4109020
4109450
4110609
4110636
4110680
4110983
4111810
4111915
4112198
4112207
4112370
4112795
4114825
4114853
4115309
4116186
4117204
4118342
4119246
4119766
4119914
4120528
4120707
4121854
4122109
4122123
4122246
4122776
4123233
4124044
4124606
4124804
4125425
4125575
4126143
4126429
4126821
4127715
4128096
4128097
4129102
4129557
4130848
4131509
4131804
4132224
4132417
4132445
4132531
4132981
4132986
4133881
4134056
4135300
4135933
4136741
4137038
4137510
4137678
4138063
4138480
4139013
4139181
4139661
4142142
4145185
4146438
4147126
4147392
4147421
4147728
4149401
4149623
4150112
4150496
4151440
4152096
4155281
4159964
4161015
4161542
4162228
4170120
4170319
4171132
4171739
4173352
4174960
4175407
4177369
4177769
4177910
4190749
4191206
4191383
4191959
4191965
4204279
4205065
4214342
4216315
4218753
4220143
4220882
4220989
4221656
4222362
4223723
4223944
4224315
4224462
4224680
4225364
4228380
4229044
4229274
4229349
4230442
4232319
4232343
4237400
4237743
4237918
4238961
4239929
4240908
4242236
4243158
4243614
4245631
4245801
4246498
4246941
4248104
4248222
4248258
4248442
4249684
4249711
4249758
4249814
4250162
4250567
4250581
4250742
4253564
4253698
4256794
4257351
4258860
4259845
4261409
4263537
4264513
4265353
4265363
4269691
4269999
4270505
4270979
4270984
4271335
4271498
4272562
4274002
4274615
4274710
4275994
4276942
4277900
4277930
4277991
4278016
4278343
4279171
4280152
4281797
4282656
4283138
4283335
4283787
4284074
4284271
4284494
4286233
4286542
4286785
4287233
4288914
4290293
4290334
4290501
4291510
4335549
4335650
4336859
4338857
4339446
4339760
4340401
4341598
4341826
4342027
4342911
4344540
4344845
4345661
4346709
4346738
4347616
4348710
4349299
4349332
4349530
4350564
4350570
4354522
4354534
4354802
4355222
4355542
4356000
4356679
4356885
4356897
4356930
4358239
4358247
4358486
4359030
4359130
4360290
4360325
4360435
4361632
4362013
4363318
4364118
4364287
4366678
4366958
4367488
4368024
4368073
4368690
4368834
4370556
4370773
4371748
4371825
4371929
4379937
4382230
4383812
4384977
4385245
4385511
4385659
4387174
4387508
4391927
4392254
4397624
4399175
4401156
4402361
4402705
4402752
4404134
4405585
4406553
4406892
4406956
4407034
4407762
4407777
4408343
4408731
4409074
4409482
4409544
4409581
4409980
4410665
4411035
4412024
4413561
4415479
4418705
4420948
4424043
4424056
4424949
4425127
4428526
4428575
4429145
4430921
4431089
4431998
4432346
4432776
4432869
4433423
4433739
4435020
4438042
4439031
4439192
4440817
4441264
4441964
4442444
4442953
4444248
4444262
4445769
4448712
4448982
4449478
4452396
4453236
4454736
4454766
4457856
4457918
4458398
4458488
4459753
4459835
4460854
4460987
4461509
4461525
4461921
4463326
4464250
4465590
4465612
4465746
4466198
4466867
4466902
4467976
4469604
4469660
4470491
4470624
4470836
4471490
4471568
4471910
4471957
4472289
4472382
4473094
4473763
4474446
4474865
4474956
4476242
4477555
4478447
4479373
4479886
4480094
4481254
4481297
4481607
4482383
4483710
4484664
4485273
4486817
4487341
4493193
4493293
4496574
4497402
4498189
4498719
4499394
4499915
4500155
4500328
4502186
4502481
4502845
4503008
4503312
4503517
4504712
4505119
4505273
4505761
4506074
4506161
4506361
4506554
4506745
4508542
4509990
4511399
4513840
4515428
4516323
4516491
4518237
4518574
4518590
4520155
4523857
4524558
4525094
4525702
4526208
4526227
4526633
4526784
4527556
4527760
4529247
4529573
4529957
4530151
4530397
4530495
4531270
4531398
4531403
4531472
4531578
4532367
4532392
4534107
4535356
4536117
4538649
4539299
4540192
4546518
4547027
4547766
4566919
4567413
4567443
4567880
4567893
4568283
4569502
4569621
4569861
4570950
4571577
4572070
4572288
4572490
4572528
4573030
4573334
4573850
4575010
4575701
4576383
4576409
4576698
4577167
4578887
4578926
4579768
4580898
4580934
4580940
4581818
4582673
4583283
4583672
4584196
4584809
4585670
4586205
4586462
4586702
4586734
4587508
4587964
4588032
4588116
4588690
4588836
4589037
4589064
4589338
4589834
4590993
4591274
4592541
4592889
4592997
4593178
4593539
4593943
4594272
4594920
4595275
4596215
4596363
4596918
4597222
4599321
4599805
4600550
4600935
4600960
4601946
4601951
4603998
4605402
4606257
4606628
4606678
4606686
4606694
4607232
4607594
4607638
4610763
4612002
4612098
4612256
4612400
4612436
4613352
4614322
4614658
4615449
4615794
4616619
4617358
4618458
4618839
4619068
4621730
4623876
4623955
4626241
4627441
4628327
4628580
4629802
4631622
4631676
4632008
4633253
4634670
4635776
4637247
4637396
4638960
4640050
4640177
4640943
4641577
4641582
4641695
4642041
4642100
4644371
4645943
4646329
4646338
4646679
4646940
4648803
4649249
4650202
4650240
4650928
4651278
4651777
4652108
4652473
4652689
4653037
4653266
4653389
4653392
4653839
4655507
4656901
4657461
4658314
4658328
4658401
4658861
4659319
4659460
4659504
4661851
4661996
4664475
4664911
4664967
4667179
4667598
4668659
4669387
4670679
4672422
4672552
4673148
4673224
4673449
4673761
4675037
4675441
4675630
4675999
4676176
4679924
4680438
4681141
4682018
4682387
4684060
4685222
4686797
4687358
4687452
4688423
4689223
4690366
4691751
4691889
4691908
4693160
4694057
4694675
4697553
4697561
4697615
4697900
4699452
4701397
4704553
4705390
4705772
4705782
4706785
4706937
4707660
4708123
4708507
4720050
4720568
4720727
4721956
4721958
4723446
4723502
4724395
4725955
4731876
4733204
4760138
4763070
4764298
4770990
4778119
4780760
4781125
4781428
4781488
4782933
4783981
4784260
4784978
4790121
4791863
4795162
4795866
4796072
4796243
4796505
4798077
4800131
4801256
4801284
4801797
4804849
4806906
4807077
4807126
4807764
4807985
4808202
4808759
4809046
4810339
4811115
4814148
4814659
4816182
4817088
4818135
4819104
4819893
4821143
4821430
4822086
4822121
4823147
4823418
4823931
4823992
4826553
4826971
4827280
4827325
4828073
4829112
4829605
4830193
4831609
4833442
4835987
4836860
4836899
4838091
4838659
4847129
4849195
4851063
4851776
4853867
4856599
4858907
4859309
4861807
4871508
4871692
4874859
4876853
4885502
4893224
4898717
4899589
4899609
4899977
4903146
4903451
4903666
4904859
4908265
4908755
4910021
4910415
4910522
4910616
4910686
4911153
4911263
4911307
4912020
4912550
4913182
4913362
4913956
4914799
4914866
4914947
4916237
4917215
4917910
4918490
4918919
4919501
4920652
4920998
4921724
4922497
4924502
4925125
4925412
4926026
4926263
4926421
4928262
4928354
4929113
4929541
4930607
4932304
4932428
4933300
4938636
4939168
4939756
4939776
4939781
4940067
4940362
4941394
4941638
4941873
4942905
4943442
4943976
4944672
4944789
4945022
4945440
4945903
4946253
4946864
4946892
4947023
4947580
4947861
4948589
4950589
4952049
4952153
4952442
4952595
4953850
4954654
4955155
4955490
4955555
4956750
4957110
4957585
4959140
4959178
4960731
4961306
4962754
4964058
4965361
4965414
4966694
4967464
4967509
4967867
4968171
4969661
4970881
4970997
4971413
4972777
4973122
4973449
4974644
4975667
4975910
4977173
4977533
4978107
4978867
4978998
4981318
4982069
4984034
4984353
4985385
4985388
4986227
4987407
4988071
4988570
4988642
4988791
4989178
4991746
4992051
4992098
4993735
4993864
4995062
4995451
4998017
4998054
4999151
5002058
5003002
5003187
5004075
5004090
5008200
5008204
5008322
5011603
5011899
5013566
5015176
5015470
5015684
5017254
5017873
5018202
5018953
5022944
5023232
5023938
5024275
5024508
5024904
5026848
5027345
5027511
5029200
5029214
5029784
5029912
5030278
5032538
5033396
5033458
5033484
5033485
5033536
5033753
5034429
5036277
5036902
5038426
5038639
5039037
5039927
5040957
5041595
5042527
5042653
5042944
5042955
5043536
5043588
5044312
5045002
5047873
5048080
5051258
5051629
5051686
5052705
5052810
5053133
5053628
5053734
5053865
5054070
5056608
5060062
5060230
5060597
5060701
5061037
5061224
5064137
5065981
5068223
5069838
5070971
5071898
5073910
5074398
5074690
5075778
5076963
5077685
5077819
5078057
5078261
5078343
5078716
5078947
5080719
5081182
5082810
5083101
5084175
5084282
5084284
5085091
5086060
5088113
5088178
5088810
5088954
5090668
5092876
5094647
5094726
5094906
5095114
5095304
5096148
5096533
5096848
5096929
5097199
5097666
5098073
5098074
5098222
5098346
5098883
5099144
5100415
5100631
5101854
5101881
5104472
5105849
5105929
5106361
5106406
5106430
5106487
5107306
5107404
5107878
5108657
5109287
5109535
5109711
5110275
5110715
5110898
5111516
5111894
5111999
5112199
5113001
5113111
5113271
5113413
5113431
5114852
5117384
5118908
5119962
5122572
5122766
5123483
5124001
5125449
5125896
5125925
5126257
5126308
5126354
5126954
5127707
5132655
5133657
5137609
5138826
5139636
5140505
5140550
5141927
5142531
5143515
5144462
5146274
5148001
5148601
5149503
5149564
5149572
5149584
5149676
5149778
5150010
5150380
5150564
5151225
5152054
5152219
5153329
5154516
5155241
5155301
5155517
5155611
5156070
5157366
5158215
5159507
5160666
5160722
5161046
5161168
5161219
5161281
5161293
5162053
5162211
5162297
5163022
5163702
5163747
5163750
5164261
5165187
5165534
5165731
5166893
5167489
5167539
5167771
5168004
5169316
5170903
5170909
5173053
5174223
5174281
5174889
5175124
5176534
5176719
5176725
5177471
5178065
5180752
5181003
5181366
5181475
5182120
5182337
5183476
5183533
5184091
5184576
5185082
5185227
5186603
5186793
5187282
5187890
5188060
5188084
5188901
5189111
5190624
5192732
5193967
5194270
5194319
5198711
5199024
5199124
5200520
5201669
5201826
5202625
5203659
5203683
5204783
5205146
5206971
5208753
5209517
5209706
5209731
5209786
5210664
5211830
5211835
5211841
5211852
5211858
5211938
5212192
5212247
5212435
5212674
5216376
5216593
5217076
5217567
5218078
5218731
5218943
5220400
5220784
5220906
5221033
5221054
5221127
5222895
5225054
5225149
5226325
5227830
5227987
5228217
5228912
5229030
5229271
5230169
5231084
5231317
5231910
5235241
5235689
5236600
5236757
5237658
5237879
5238559
5239224
5239303
5240271
5243897
5244758
5245328
5245717
5246195
5246279
5247645
5248844
5251675
5251747
5252354
5252707
5253743
5256011
5260718
5261477
5261681
5262256
5262645
5265860
5265891
5266293
5266995
5267031
5267758
5268215
5268364
5268382
5268394
5269043
5269160
5270950
5271016
5271021
5271405
5271617
5272943
5272949
5273353
5274915
5275170
5279414
5279594
5280296
5280643
5281409
5281743
5281865
5282543
5285334
5286387
5286437
5286479
5286773
5289816
5290303
5290543
5292822
5293034
5293212
5293266
5294849
5297833
5297965
5298986
5299289
5299360
5299829
5299905
5300676
5300714
5301390
5301634
5301763
5301818
5302065
5303097
5304252
5304406
5304844
5305000
5306552
5306588
5307514
5307551
5307569
5307850
5308245
5309216
5310550
5311112
5311128
5315176
5322950
5323136
5323974
5324778
5325011
5327199
5328040
5328480
5329913
5330332
5331287
5332152
5332699
5336296
5338182
5338194
5339274
5339571
5339797
5340160
5340251
5340668
5340707
5340765
5342023
5342426
5342498
5344814
5346351
5346682
5348165
5348293
5348628
5349417
5349480
5351385
5352115
5352177
5352338
5352486
5352697
5352759
5353550
5354157
5354983
5355341
5355773
5356255
5357153
5357256
5357901
5405438
5408370
5409780
5410171
5415453
5420054
5426762
5430293
5431194
5440426
5440501
5441331
5441396
5441844
5442426
5442648
5443225
5445879
5446767
5447592
5447995
5448134
5448607
5449206
5452141
5453451
5453500
5453646
5453959
5457062
5457076
5457625
5458378
5459549
5463068
5463450
5464139
5464743
5465707
5465996
5466135
5466428
5466578
5467258
5470077
5470218
5470363
5470817
5470892
5471103
5471130
5471270
5471921
5472079
5472364
5472647
5473264
5474057
5475519
5476507
5480109
5480594
5480621
5481335
5483143
5483437
5485070
5485477
5485968
5486018
5486240
5486889
5487073
5488240
5490649
5491834
5491903
5492272
5492895
5494083
5494521
5495273
5495767
5496777
5497298
5497624
5498036
5498553
5499374
5499519
5499745
5499807
5500439
5500790
5501760
5502240
5502732
5503961
5503997
5504082
5504546
5505033
5505051
5505614
5505687
5506636
5506805
5507001
5507755
5509012
5509695
5509726
5509729
5509931
5511282
5514088
5514138
5515011
5515495
5515897
5516563
5517828
5519527
5520921
5521362
5522914
5526250
5526537
5529895
5533384
5535213
5535620
5535887
5536505
5536826
5554925
5559436
5560101
5560200
5561191
5561688
5561942
5562360
5562614
5563216
5563224
5568712
5568981
5569607
5571068
5571452
5571521
5571896
5572976
5573078
5574210
5574795
5575208
5575231
5576299
5581014
5581512
5584287
5587546
5589879
5589882
5590303
5592412
5592972
5593083
5593239
5593566
5593832
5595518
5596716
5599328
5605276
5605325
5606214
5606277
5607630
5607676
5608598
5608734
5609363
5610306
5610666
5611972
5612438
5613528
5614088
5615194
5616513
5617777
5618385
5619395
5625492
5626067
5627521
5627685
5627847
5628012
5628526
5630807
5631539
5631793
5631876
5634024
5635986
5636431
5637431
5638096
5638270
5638297
5638933
5639380
5639966
5641237
5642114
5642325
5642425
5644848
5645175
5645399
5646207
5646608
5646799
5647573
5648026
5648667
5648961
5649279
5649589
5651187
5651341
5651479
5651539
5651638
5652019
5652047
5652087
5652719
5653298
5654409
5655419
5656091
5657437
5657723
5657816
5657932
5658342
5659360
5659361
5664926
5665086
5665829
5666387
5666467
5667630
5669757
5672138
5672320
5672446
5672746
5674408
5675739
5676398
5678406
5679263
5680062
5681007
5681930
5682721
5682844
5683233
5685582
5686512
5687681
5688799
5688907
5689557
5689776
5689945
5689979
5691257
5691619
5692510
5692604
5694212
5694342
5694828
5697702
5697977
5698095
5698331
5698498
5698960
5699195
5699278
5700672
5700891
5704204
5704926
5706074
5706914
5706977
5706985
5707030
5707337
5707911
5707970
5708735
5711474
5711520
5712266
5714252
5715812
5716415
5718506
5722489
5722948
5725660
5726312
5726360
5726541
5727101
5727195
5727734
5727805
5727978
5730220
5730649
5730725
5731460
5735157
5736764
5737214
5737964
5738032
5738104
5738813
5742662
5744213
5745270
5745881
5746464
5749021
5749836
5753109
5753751
5753830
5753936
5754610
5754650
5756569
5756921
5758012
5759620
5761537
5761679
5762110
5764037
5765531
5765687
5765877
5766313
5767957
5768579
5768999
5770082
5770209
5770664
5770823
5770847
5770915
5771141
5771199
5771582
5771935
5774058
5779531
5779921
5780154
5781406
5781513
5783367
5784638
5785109
5785980
5787041
5787842
5788036
5788068
5789006
5789070
5789180
5789631
5789970
5790492
5790643
5791588
5792011
5793022
5793234
5793259
5793603
5795017
5795019
5795090
5796423
5796643
5797145
5797177
5797786
5798125
5798306
5799605
5800212
5800260
5801200
5801937
5803217
5803376
5805881
5806110
5806176
5806767
5807075
5808109
5808382
5808651
5808754
5809499
5821975
5823156
5823737
5823807
5826316
5826980
5827343
5832457
5836598
5838387
5839884
5839895
5840005
5840265
5841903
5845946
5845995
5848095
5848258
5848649
5848860
5849077
5849314
5850720
5851018
5851378
5852650
5853937
5854386
5854459
5854966
5856046
5856498
5858135
5859045
5860000
5862332
5864850
5864881
5864918
5864965
5865381
5865400
5866974
5867076
5868671
5869422
5870333
5870805
5871580
5873471
5874515
5877211
5877683
5878025
5879761
5880048
5881360
5882642
5882855
5883168
5883528
5884215
5884721
5886262
5886589
5886598
5890713
5892131
5892545
5892596
5892605
5893733
5894789
5894823
5895623
5896878
5896981
5897032
5897915
5899041
5899865
5899921
5899942
5900109
5901846
5902711
5903346
5903360
5905335
5905820
5906412
5906935
5907305
5907385
5909511
5909838
5910144
5911299
5911729
5912381
5913090
5913918
5914479
5917996
5918077
5919354
5919358
5919535
5921954
5922577
5922942
5923970
5924225
5927690
5928101
5928233
5929073
5929708
5929876
5930508
5931422
5931434
5931604
5931934
5932264
5932816
5933548
5934949
5935263
5936344
5936506
5937092
5938117
5938285
5939053
5940511
5941010
5941652
5943963
5945976
5946984
5947114
5947509
5947917
5948792
5950231
5951900
5952102
5953623
5953747
5956722
5957273
5959588
5960263
5962031
5962253
5962541
5963898
5964021
5964475
5964534
5964637
5964710
5965708
5967159
5968250
5968530
5969229
5969500
5971005
5971462
5972059
5973486
5973496
5974058
5974457
5974475
5975899
5976215
5976598
5976855
5977023
5977342
5977854
5978253
5978349
5979687
5980046
5980613
5980804
5980983
5985331
5989988
5990586
5991437
5993035
5995295
5995590
5995617
5996881
5998317
6000535
6001504
6002110
6002378
6002883
6003273
6004544
6005782
6007549
6007744
6009666
6010777
6011968
6012037
6012060
6012452
6012562
6012827
6012983
6013126
6013272
6013274
6013571
6014244
6014997
6015099
6015706
6015820
6016862
6017222
6018408
6019515
6019571
6019633
6019835
6020850
6024457
6024483
6024859
6026260
6027640
6030963
6034182
6034344
6035743
6043049
6051677
6052243
6065009
6069913
6079068
6080725
6080779
6081591
6081693
6081831
6081934
6082077
6082811
6083492
6084873
6085601
6085933
6086704
6086824
6087475
6087476
6087781
6089301
6090129
6090769
6091519
6092324
6095219
6096476
6096864
6098006
6098049
6098096
6098486
6100010
6102153
6102868
6103305
6103745
6103909
6105068
6105649
6106540
6107188
6108012
6108514
6108620
6108845
6109496
6110139
6110258
6110425
6111358
6111810
6112085
6112251
6112525
6113065
6114562
6119388
6119631
6119933
6120574
6121424
6122305
6124621
6124847
6125082
6125603
6128867
6129114
6129643
6129687
6130960
6131388
6134027
6134562
6134617
6134819
6135952
6136638
6137054
6137843
6138001
6140216
6140896
6140930
6142499
6142988
6144223
6144318
6144669
6147038
6148072
6148192
6148574
6149621
6153827
6153902
6154847
6155537
6155587
6156075
6156991
6157610
6157661
6159187
6159217
6159567
6159817
6159922
6160216
6160897
6161706
6162099
6162893
6163315
6164474
6165069
6166082
6166299
6167099
6167358
6167662
6168501
6168762
6169360
6170522
6170594
6173182
6173337
6175478
6176109
6176382
6178291
6179448
6179503
6180379
6181626
6185822
6187388
6187649
6189298
6189723
6190008
6190190
6190936
6191869
6192739
6192847
6193257
6193454
6193756
6194081
6194751
6195719
6196445
6196995
6197975
6197980
6198204
6199353
6199493
6199712
6199874
6199939
6200737
6201264
6201855
6202530
6205187
6206621
6207079
6207193
6207212
6207451
6207655
6208408
6208427
6208740
6208840
6209158
6209258
6209595
6209692
6210337
6211364
6211780
6213171
6213459
6213880
6214136
6215499
6216656
6218332
6218969
6219769
6219831
6221177
6221748
6223876
6224082
6224232
6224315
6224574
6224876
6225608
6225683
6226029
6227465
6227549
6227733
6231848
6232251
6232339
6232365
6233939
6233962
6234118
6234633
6234869
6235130
6235379
6235607
6236489
6239793
6239926
6240795
6241907
6242309
6242991
6243545
6244438
6244524
6245461
6246773
6248415
6248606
6248699
6249992
6250447
6250803
6251792
6251917
6253986
6255148
6255819
6256152
6258133
6258544
6259379
6262848
6263069
6264061
6264502
6265191
6265449
6265667
6265762
6267758
6270795
6275633
6275640
6278441
6280140
6283975
6284398
6284509
6284909
6286721
6287094
6287419
6287439
6287916
6288118
6288331
6288910
6289124
6289142
6291104
6292297
6292535
6294639
6296208
6296625
6297055
6297735
6297742
6297906
6298720
6298802
6299855
6301510
6302901
6302907
6303362
6303449
6305217
6305575
6305862
6305990
6305994
6306022
6306477
6306484
6307326
6307471
6307531
6309683
6309941
6310051
6310349
6310411
6313360
6313960
6314686
6314873
6315032
6315462
6315596
6315759
6315999
6316052
6317160
6317728
6318011
6320130
6320713
6321972
6322192
6322206
6322638
6323351
6323440
6323721
6323756
6325290
6325661
6325782
6326062
6326571
6326621
6327122
6327360
6327797
6328330
6329209
6329290
6330478
6330600
6330862
6331783
6332972
6333050
6334295
6334666
6335388
6335436
6335511
6336896
6337524
6339186
6339917
6340810
6340822
6341585
6343839
6344450
6344610
6344651
6345641
6345771
6346430
6349148
6349249
6350322
6353369
6354599
6366122
6366125
6366399
6372331
6372763
6374066
6374422
6374574
6374927
6375567
6377549
6379248
6379653
6379654
6382370
6383917
6384533
6384811
6390445
6391502
6392782
6392978
6393301
6394339
6394574
6395847
6396339
6396671
6396897
6397518
6397921
6398170
6398468
6399731
6400404
6400412
6400576
6402438
6403280
6403297
6403774
6403933
6406648
6407514
6407627
6408656
6408914
6410763
6411066
6411907
6412413
6413009
6413157
6413245
6413625
6414003
6414181
6414200
6414231
6414714
6415409
6415622
6416758
6416857
6417659
6418315
6418422
6420061
6420608
6420688
6420789
6421457
6421810
6423102
6423692
6425155
6425310
6425814
6426593
6427267
6427332
6427612
6427798
6428011
6428265
6432236
6432298
6433486
6434474
6434634
6435605
6439515
6440359
6440409
6441001
6441497
6442777
6443663
6443726
6445964
6446390
6447552
6447805
6448430
6448513
6448752
6449042
6449634
6449860
6451663
6451928
6452777
6453924
6456523
6459075
6459330
6459540
6459541
6462080
6465258
6465715
6465895
6468923
6469142
6470185
6471637
6471699
6471898
6471907
6471985
6472172
6473744
6474054
6474883
6474896
6475360
6476499
6476789
6477687
6477703
6478899
6479344
6479931
6479941
6480182
6480244
6480497
6480803
6481650
6481713
6481740
6482017
6483109
6483369
6483770
6483955
6484041
6484330
6484482
6484505
6484669
6486200
6486602
6486668
6486678
6488588
6489320
6489627
6490998
6491141
6491167
6491706
6491848
6492238
6492467
6492611
6493605
6493726
6493783
6493799
6493856
6493872
6494454
6494648
6494715
6494763
6497398
6497451
6497498
6499215
6499288
6499497
6500462
6501724
6502260
6502884
6503097
6504313
6505689
6506271
6506279
6506410
6506909
6506917
6506992
6507127
6512281
6512499
6512843
6513418
6514649
6515998
6518427
6520777
6521568
6521768
6522038
6523157
6523254
6523798
6524144
6524169
6524171
6525074
6528586
6529581
6529597
6530137
6530433
6530761
6532430
6532918
6534252
6534846
6534863
6536056
6536105
6538436
6538687
6538988
6539564
6539861
6540440
6541866
6542395
6543115
6543450
6543456
6543588
6543654
6544405
6544446
6551755
6553629
6554221
6554758
6555246
6556437
6559454
6559776
6560858
6561652
6561693
6561702
6562105
6562555
6562583
6562616
6563424
6564108
6564771
6566595
6566973
6567062
6567093
6567672
6568485
6571603
6571662
6571790
6573168
6573426
6574459
6574627
6575997
6577394
6577451
6577495
6577694
6578436
6578635
6578719
6579766
6579893
6580030
6580489
6584125
6584367
6585928
6588659
6590080
6600324
6600735
6600902
6601562
6602223
6605214
6605323
6605806
6606658
6607886
6609672
6611158
6612975
6614058
6614432
6614477
6616047
6617194
6618735
6618995
6619218
6619768
6619868
6621058
6621148
6621729
6622292
6622477
6624000
6624318
6626047
6626972
6627166
6627351
6627986
6628121
6628334
6629012
6629374
6629929
6630808
6630878
6630988
6631270
6631645
6632448
6633130
6634394
6635073
6635180
6635338
6636828
6638450
6639611
6640354
6640801
6641867
6642156
6642677
6642829
6642994
6643035
6648051
6648948
6649670
6650867
6650943
6650999
6651165
6651319
6651445
6652107
6653038
6653679
6654890
6656329
6658065
6658267
6660132
6660511
6661527
6661589
6661895
6662203
6662821
6663055
6663566
6663977
6664511
6664759
6664781
6669219
6669768
6669804
6669872
6670426
6670468
6670773
6671868
6672359
6672372
6672382
6673341
6674857
6674900
6675015
6675024
6675979
6676631
6676661
6676849
6676989
6679922
6681235
6682965
6683354
6683444
6683880
6684144
6684566
6685442
6686821
6687112
6687951
6688201
6688205
6690288
6690585
6691105
6693934
6694000
6694318
6694746
6695772
6695933
6698025
6700429
6701103
6701876
6702418
6702604
6702851
6702886
6703483
6716301
6717452
6719014
6720734
6721297
6722098
6726178
6727504
6730689
6732027
6732100
6732364
6733486
6733673
6734429
6734735
6735328
6735495
6735804
6735887
6736036
6736564
6737658
6738529
6738688
6738935
6739563
6739581
6739658
6739987
6740031
6741050
6741698
6741778
6742389
6742500
6742913
6743040
6743449
6744488
6744490
6745163
6745867
6746217
6746345
6746795
6746888
6747185
6747372
6748604
6749004
6751467
6753101
6753325
6753382
6755531
6755834
6757082
6757250
6757550
6757778
6757833
6758281
6758753
6759571
6761263
6762566
6762859
6763137
6763156
6763495
6764044
6764503
6764508
6764762
6765591
6766390
6767101
6767528
6767560
6769799
6770492
6770601
6770801
6771854
6771933
6772010
6772829
6774059
6774366
6774601
6774709
6776762
6776800
6778559
6778656
6779485
6780649
6781309
6782541
6783045
6784077
6785390
6785441
6785977
6786647
6786670
6786977
6786986
6787126
6787250
6787881
6788604
6788720
6788832
6789813
6789863
6790008
6790130
6790295
6790755
6790993
6792492
6793194
6793832
6794990
6795424
6797065
6798236
6798500
6799066
6799420
6799590
6800739
6801768
6801861
6801971
6802392
6803960
6804706
6805361
6806301
6806876
6808190
6808201
6809146
6810993
6811065
6811408
6811690
6829155
6829297
6829417
6830084
6831597
6831805
6831813
6833268
6834929
6836225
6836543
6836950
6838971
6839300
6839853
6840029
6840488
6841960
6843421
6845055
6845150
6846004
6846434
6847168
6847895
6848249
6848717
6849662
6850368
6851002
6851037
6854788
6855178
6856450
6857789
6857948
6858287
6858299
6858763
6862116
6862411
6862647
6862937
6862940
6864222
6866047
6869323
6871000
6871811
6872608
6873214
6873653
6874863
6875031
6875321
6876304
6876570
6880791
6881905
6884838
6889938
6891072
6893113
6893313
6893323
6895107
6896483
6896577
6896621
6897459
6897772
6898391
6899261
6899291
6899980
6900090
6900096
6900425
6900558
6901568
6901578
6901801
6903120
6903250
6903558
6905288
6908933
6909296
6909568
6909881
6911010
6911826
6911865
6911866
6913151
6916499
6919863
6919923
6919938
6920526
6921812
6922286
6923383
6924788
6925434
6925987
6926081
6926292
6927680
6931171
6931231
6931257
6931349
6931482
6935639
6937336
6937372
6937689
6938435
6939268
6939379
6939601
6939950
6941848
6941967
6942001
6942651
6945314
6946153
6946219
6946297
6946677
6946728
6947246
6950352
6951796
6953375
6955409
6955729
6955914
6956172
6956632
6958215
6958516
6958578
6958981
6961163
6962541
6963448
6965093
6966378
6967684
6967876
6968160
6968285
6969441
6970729
6972560
6974494
6975187
6976299
6976576
6976857
6976994
6978646
6980130
6980651
6982484
6982957
6983312
6983869
6983967
6984068
6984679
6984859
6985012
6985481
6986006
6986645
6986763
6987068
6987582
6987828
6988467
6990229
6991934
6993773
6994111
6994196
6994489
6995240
6995819
6996975
6997015
6997141
6997996
6998518
7000263
7000702
7001374
7002490
7002715
7006941
7008203
7008269
7008479
7009376
7011245
7011748
7012255
7012672
7013600
7014849
7014972
7015863
7016509
7018407
7018690
7018742
7018973
7019155
7019412
7019498
7020680
7022474
7022493
7022533
7022578
7023177
7024058
7025632
7026191
7026252
7026368
7026836
7028980
7029322
7031681
7033581
7034027
7034031
7034296
7034401
7034564
7034737
7035433
7036432
7046768
7055259
7058235
7058940
7059170
7059413
7060057
7060209
7060434
7061118
7061141
7061736
7062568
7063224
7063373
7064244
7064379
7065131
7065753
7066159
7066985
7070293
7072091
7074186
7074313
7074780
7076098
7076201
7077592
7079207
7080197
7081497
7083811
7084725
7085137
7085243
7085912
7085922
7087606
7087624
7093363
7094455
7108654
7109497
7111218
7111232
7112011
7112583
7114256
7115364
7117744
7118348
7118572
7120009
7120490
7121140
7121291
7121547
7121562
7122053
7122544
7122771
7124838
7125398
7125458
7125986
7126519
7127462
7130825
7131785
7133162
7133282
7133588
7133628
7134558
7136143
7136602
7137206
7137593
7137767
7138095
7138370
7140514
7140901
7141014
7141458
7141978
7142038
7143385
7144851
7144868
7145614
7146447
7146797
7147193
7148015
7148302
7150758
7151352
7151477
7151826
7153215
7153715
7154341
7155679
7156231
7157332
7157377
7158166
7158613
7159756
7160459
7162334
7162649
7163252
7163637
7163920
7164777
7165788
7166807
7166875
7167218
7167397
7168590
7168627
7169468
7169589
7169890
7171483
7179585
7179625
7179941
7183156
7185253
7187051
7187135
7188735
7188868
7189484
7189898
7190432
7190519
7190539
7190644
7191729
7199466
7199541
7200004
7200964
7201312
7202212
7204280
7204298
7204876
7204987
7205373
7205552
7205962
7207020
7207343
7207880
7208052
7209158
7209957
7209987
7210393
7210932
7211892
7212213
7213012
7215102
7217679
7218346
7222171
7223596
7223936
7224903
7225867
7226001
7227308
7230981
7231245
7231308
7231721
7231794
7232272
7233006
7233633
7233822
7233992
7234061
7234365
7234398
7234724
7235081
7236463
7237092
7237317
7238005
7238765
7241344
7241574
7241752
7248393
7249068
7249934
7251103
7252114
7253404
7256368
7257718
7258049
7260354
7260576
7260793
7260926
7261172
7262604
7264831
7265348
7265542
7266311
7266799
7267416
7268843
7269984
7269991
7271588
7272090
7272645
7272674
7273373
7273666
7273733
7274096
7274837
7274964
7276499
7276638
7277269
7279679
7279897
7280988
7281156
7287265
7287596
7287665
7288065
7288519
7288553
7288763
7289614
7290426
7291058
7291473
7291618
7291764
7291833
7292040
7292098
7292138
7292373
7292995
7294011
7294930
7296054
7296062
7296281
7296377
7296441
7297287
7297386
7299140
7299879
7301310
7301344
7301742
7303815
7303953
7304996
7305391
7305973
7306381
7307188
7307954
7308608
7308783
7309958
7310431
7311689
7312588
7312691
7314030
7314885
7316877
7317028
7320887
7321235
7322271
7322528
7323363
7323776
7324074
7324298
7324863
7325799
7325809
7325910
7326083
7326197
7327158
7327380
7328202
7328432
7329248
7329553
7329682
7331958
7331982
7332806
7333069
7333992
7336967
7339670
7339992
7340103
7340698
7343135
7343862
7344245
7345101
7346246
7347086
7347236
7347827
7350295
7354436
7354979
7355000
7355149
7355514
7355863
7355882
7356000
7357186
7357449
7358010
7358152
7360286
7360470
7360537
7360651
7360988
7360991
7361421
7361454
7361796
7362142
7362265
7362505
7362530
7362906
7363704
7365097
7365409
7365977
7366014
7366616
7366799
7366893
7367906
7368378
7368573
7369524
7369816
7369938
7370481
7370545
7370585
7371701
7373249
7373319
7374268
7374747
7374935
7379819
7382298
7383042
7383049
7383661
7384251
7387548
7388452
7388802
7389273
7390071
7390433
7391003
7391033
7391548
7392128
7393212
7393606
7393679
7393680
7394396
7395952
7396038
7396784
7397472
7397617
7398430
7399121
7399173
7400324
7404537
7404861
7404884
7406153
7407074
7407414
7407501
7408751
7408964
7409307
7410801
7412071
7412554
7413101
7413329
7413878
7414359
7414638
7417485
7417781
7418321
7418344
7421731
7421741
7422166
7422510
7423020
7426942
7427973
7429248
7429273
7430034
7430773
7431239
7433182
7433245
7433255
7433513
7433882
7435731
7435911
7436836
7437065
7438250
7438767
7440606
7441175
7441208
7443800
7444022
7444122
7444614
7445429
7446996
7446998
7447702
7447804
7447816
7447844
7448280
7448296
7450118
7450184
7450272
7451251
7451323
7451883
7452204
7452687
7453094
7453365
7454528
7454590
7454623
7456164
7456183
7457061
7458781
7459357
7459795
7461532
7461639
7462424
7462842
7465074
7465463
7468866
7470030
7472577
7474676
7475503
7477959
7479441
7479950
7480329
7480550
7480958
7481047
7481244
7481496
7482714
7483164
7484223
7486127
7488412
7490347
7490385
7491642
7494144
7494259
7494441
7495212
7495372
7496384
7497935
7500796
7500803
7502081
7504728
7505702
7505810
7506076
7506568
7506689
7506776
7508325
7508876
7509353
7513879
7515901
7517200
7517547
7518948
7520016
7520392
7521980
7522041
7522784
7523884
7524976
7525161
7526827
7528548
7528601
7529095
7530219
7530721
7530761
7530866
7531478
7531711
7531849
7531865
7532058
7532064
7532227
7533421
7533451
7533935
7537387
7537989
7538371
7540819
7541598
7542415
7542795
7542816
7542827
7543583
7545220
7547813
7548184
7548638
7549498
7549856
7550873
7551865
7551954
7552187
7552639
7553690
7554145
7559429
7559699
7559886
7560494
7562800
7564231
7566111
7567182
7568496
7572427
7572511
7573125
7574872
7577195
7577234
7577851
7578302
7578526
7579075
7579984
7580321
7581696
7583881
7584647
7586134
7587563
7588874
7589705
7592329
7592481
7592493
7592694
7592874
7593592
7594568
7595693
7596363
7597878
7598366
7599341
7599836
7601274
7601918
7603217
7603548
7604343
7604766
7607153
7611130
7612358
7612535
7613294
7614951
7615385
7617583
7617966
7618458
7618892
7620503
7620608
7623082
7625004
7626818
7626826
7628289
7628504
7628703
7629597
7630055
7630071
7630525
7630727
7631021
7631371
7631475
7631697
7631780
7635298
7635614
7640921
7643823
7644147
7644803
7646034
7646054
7646893
7647228
7647520
7649354
7649644
7649754
7649797
7649848
7650549
7650554
7651475
7651789
7651824
7652889
7652919
7653058
7653856
7658020
7658172
7660739
7661134
7662330
7662865
7662954
7663385
7665000
7665006
7665505
7666289
7666869
7667085
7669507
7672490
7673269
7674445
7674699
7675553
7676012
7676688
7677454
7678744
7679057
7680311
7680406
7681033
7681558
7681728
7682499
7682924
7684705
7685812
7685964
7687053
7687495
7688567
7689825
7689827
7690883
7692851
7694709
7695904
7696244
7699238
7701742
7702112
7703016
7703134
7705440
7709543
7709911
7710936
7711170
7711181
7711658
7711773
7713175
7715887
7716072
7716455
7717081
7717493
7717566
7718132
7718435
7718596
7718641
7718865
7719482
7720145
7720988
7722999
7723550
7723791
7724758
7726379
7726384
7726932
7727870
7727961
7729561
7729667
7730017
7730771
7730915
7733221
7733445
7733725
7735759
7735923
7737356
7737432
7737523
7738135
7738852
7739058
7739063
7741544
7744774
7745063
7746057
7746097
7746184
7746590
7749892
7752586
7752781
7752799
7756023
7757400
7757402
7757573
7757648
7758043
7759378
7760577
7760840
7761440
7762483
7762822
7763385
7764850
7765162
7765540
7765582
7766463
7767782
7769716
7771514
7771672
7771839
7772127
7772632
7773023
7773543
7774639
7775812
7776390
7777027
7778662
7779129
7780332
7781525
7782745
7783385
7784691
7784775
7786302
7786558
7786735
7789802
7790184
7790268
7791179
7791453
7791999
7792030
7793364
7793484
7793592
7793635
7793669
7793799
7793950
7794809
7795387
7795831
7795845
7795996
7796629
7796869
7797273
7797596
7797709
7798296
7800075
7800568
7800737
7802637
7802952
7803020
7803333
7810448
7810551
7810919
7811016
7811142
7811210
7811242
7811446
7811621
7811911
7813639
7813668
7814272
7815659
7815812
7815852
7816166
7816315
7816550
7816800
7818382
7821047
7822253
7823764
7823808
7826962
7827911
7828207
7829659
7831161
7839533
7839668
7839796
7842484
7842597
7845532
7846388
7848773
7848840
7849140
7852444
7853540
7854394
7854518
7855646
7861706
7862548
7862611
7862770
7863360
7863621
7865451
7867828
7867968
7867979
7868014
7870018
7870200
7870908
7871327
7871393
7872736
7872770
7873114
7873743
7873904
7878003
7881076
7889691
7892706
7893955
7896295
7923321
7924681
7926579
7938741
7941550
7941566
7997701
8019996
8109918
8126833
8128728
8135008
8135788
8137399
8137410
8138102
8138689
8138737
8139373
8139542
8144513
8146508
8148705
8150830
8150868
8151235
8152476
8152616
8152662
8154332
8156265
8157905
8161573
8162985
8163245
8164188
8164511
8169386
8169923
8171656
8173098
8173914
8178659
8179158
8179219
8182383
8182650
8182917
8183499
8183815
8184315
8185021
8185868
8187214
8187493
8187902
8188031
8188908
8189581
8190273
8191026
8191434
8191473
8191544
8191943
8193654
8194084
8194441
8194722
8195234
8195661
8198552
8198574
8202728
8204153
8204545
8204948
8206824
8207460
8208656
8208863
8208959
8210464
8211195
8211237
8211809
8211963
8212027
8212741
8213090
8214306
8214320
8215421
8216142
8220466
8221309
8222092
8226019
8226760
8229453
8229987
8230943
8233644
8240108
8242433
8242508
8242578
8243835
8245023
8245515
8249918
8250342
8251180
8251692
8255188
8255297
8256763
8257164
8258616
8259865
8260066
8260253
8263235
8264564
8266026
8267068
8268117
8268652
8269147
8269812
8270430
8270504
8289406
8290902
8291691
8296905
8297446
8300822
8300981
8301132
8301752
8303183
8303578
8303658
8303665
8304015
8304275
8305665
8306096
8306391
8307550
8311558
8313123
8313406
8313527
8313637
8315087
8316941
8316982
8317577
8317812
8318259
8318423
8322114
8323619
8324154
8324820
8325142
8325932
8327599
8327789
8328637
8328678
8328709
8328917
8329709
8329721
8329876
8330154
8330831
8331509
8332649
8332653
8332937
8333064
8333593
8334739
8335368
8336463
8336992
8339364
8339896
8340611
8341618
8342104
8343589
8344538
8345760
8347014
8347573
8347846
8348028
8348078
8348081
8348556
8349101
8351022
8352280
8352523
8353583
8353676
8353947
8354144
8354732
8355218
8357049
8357281
8358816
8359344
8359769
8359994
8361293
8361481
8361693
8362143
8362160
8362190
8364373
8364596
8366575
8366971
8367270
8367559
8368655
8368839
8369104
8369505
8372850
8373681
8375232
8375423
8376117
8377159
8377162
8378786
8379101
8380150
8381650
8382767
8383736
8383903
8386577
8386622
8390788
8391148
8392105
8392569
8393099
8393329
8393601
8395323
8395414
8395416
8395620
8397518
8397607
8397871
8397989
8398427
8398824
8399040
8400579
8403226
8403235
8405213
8405331
8405415
8407294
8409284
8409492
8410447
8410895
8411012
8411685
8412183
8412268
8412735
8413425
8413817
8415118
8415492
8416158
8417878
8418483
8419634
8419691
8421356
8422305
8423820
8424105
8424323
8425040
8425633
8427022
8427480
8429861
8431267
8431305
8432649
8432673
8432696
8433403
8433479
8433505
8434273
8437877
8438210
8439714
8439827
8440053
8440185
8442878
8444480
8444503
8444666
8446364
8448504
8450939
8450967
8451351
8454284
8454439
8455906
8456286
8456388
8456647
8456804
8457703
8458089
8458148
8459741
8459774
8460996
8462685
8463457
8468637
8471656
8472187
8473695
8476700
8476964
8476998
8477289
8477943
8477959
8478631
8479050
8479378
8479969
8480824
8482052
8483495
8484458
8485981
8486579
8487722
8489295
8489758
8490396
8490708
8490924
8492156
8492930
8493224
8493936
8494766
8495452
8495483
8496005
8496611
8497392
8498650
8501185
8501439
8501973
8503441
8503673
8504203
8504325
8504464
8505340
8505435
8505520
8505593
8505845
8505998
8506216
8507581
8507791
8507831
8508164
8511924
8512153
8512215
8514504
8514660
8518065
8518526
8519313
8520221
8523076
8523838
8526743
8526959
8530151
8530435
8536231
8536966
8538843
8539229
8539341
8539586
8539659
8540352
8545243
8545643
8549733
8550312
8550330
8550332
8551426
8552384
8553927
8557830
8557998
8558626
8559300
8559441
8559861
8559874
8560161
8561412
8561592
8561596
8562088
8562540
8562577
8563950
8564274
8564455
8568428
8569059
8569073
8569278
8569389
8571574
8572288
8573683
8574864
8574971
8575164
8575355
8576290
8576392
8576570
8576674
8578551
8578896
8579312
8579645
8580108
8581204
8581238
8582061
8582897
8583164
8583208
8583352
8584719
8584966
8585947
8588408
8588414
8590247
8592881
8594069
8594504
8594654
8594728
8594825
8595420
8597394
8597517
8598081
8598672
8599234
8599930
8600127
8600622
8601720
8602463
8602552
8604258
8608010
8608958
8610110
8611162
8612120
8612161
8612190
8612373
8613101
8614215
8614437
8614543
8615788
8616096
8618402
8618998
8619109
8619134
8620371
8620699
8621643
8622336
8622558
8622723
8623975
8625755
8626318
8626627
8627482
8628764
8630955
8631688
8631901
8636819
8637587
8638927
8638938
8639795
8642172
8642851
8644595
8644907
8646350
8647735
8652061
8653120
8653260
8655901
8659568
8659574
8660554
8661641
8661696
8667757
8672994
8673009
8673437
8674104
8678506
8680530
8681184
8685812
8685987
8687221
8687624
8688167
8688972
8690088
8690699
8691640
8691981
8692617
8693042
8693421
8694163
8694687
8695957
8696127
8697067
8697418
8698442
8698868
8698911
8699004
8699577
8699604
8700203
8700785
8703663
8704832
8705323
8705843
8708586
8716385
8716774
8716811
8716985
8724404
8725875
8725919
8727963
8728997
8729925
8730370
8731546
8733315
8733704
8733786
8734672
8736317
8736358
8736404
8738618
8743111
8744155
8744401
8744552
8748294
8748523
8749074
8749713
8749939
8752364
8752461
8754366
8754403
8755209
8755663
8756859
8757600
8757946
8758003
8758310
8758966
8759516
8762127
8762292
8763461
8763640
8764495
8765098
8765209
8767549
8767596
8768218
8769857
8772582
8772657
8772839
8772914
8774027
8775489
8775871
8775930
8777909
8778359
8779668
8780105
8781841
8781852
8782188
8782201
8783053
8783636
8784088
8785114
8785358
8786457
8786632
8786925
8787380
8787548
8787644
8788287
8788729
8789042
8789262
8790358
8791454
8792403
8793005
8794532
8795186
8795464
8798680
8799381
8800456
8800833
8800875
8801363
8801428
8802568
8803033
8803063
8804267
8806004
8807645
8811782
8812688
8813022
8814337
8814346
8815847
8815984
8816342
8817323
8818807
8820314
8821794
8821999
8822234
8822571
8823977
8826223
8826310
8826464
8827051
8827946
8828938
8828943
8829707
8830320
8830567
8831818
8832459
8832519
8832662
8832832
8833120
8833576
8834389
8834486
8835022
8835275
8836171
8836413
8838437
8838625
8838699
8838986
8838987
8839547
8839598
8840585
8841286
8841713
8842270
8842945
8843755
8844735
8845638
8847420
8848558
8849307
8849794
8850751
8850926
8851134
8851608
8851915
8852073
8852828
8853546
8864198
8864719
8864928
8864957
8864977
8867079
8868077
8868642
8868940
8870740
8871846
8873100
8873235
8873379
8873885
8873980
8875370
8875535
8878833
8879146
8881560
8881573
8882211
8882735
8884533
8885132
8885837
8886949
8887614
8887702
8888368
8889513
8890310
8891945
8893365
8893557
8894084
8894357
8894623
8894860
8896291
8898614
8898937
8901764
8901852
8902801
8903689
8903951
8904252
8906263
8907583
8907859
8909435
8912598
8913925
8917205
8917466
