1413046
1476738
2040512
2145251
3035595
3054995
3289082
337306
3554753
3667303
4007191
4539880
5355769
5710770
5922376
659393
6847164
6853976
700165
7121383
7163443
7771659
799844
8332903
8367731
858999
