72028	3324	Have_minsets
72028	1923	Have_10_or_fewer_supersets
72028	4753	Have_more_than_10_supersets
36104	3324	Have_minsets
36104	1923	Have_10_or_fewer_supersets
36104	4753	Have_more_than_10_supersets
18007	3325	Have_minsets
18007	1925	Have_10_or_fewer_supersets
18007	4750	Have_more_than_10_supersets
9003	3332	Have_minsets
9003	1926	Have_10_or_fewer_supersets
9003	4720	Have_more_than_10_supersets
4501	3361	Have_minsets
4501	1922	Have_10_or_fewer_supersets
4501	4710	Have_more_than_10_supersets
2250	3458	Have_minsets
2250	1917	Have_10_or_fewer_supersets
2250	4596	Have_more_than_10_supersets
1125	3630	Have_minsets
1125	1950	Have_10_or_fewer_supersets
1125	4334	Have_more_than_10_supersets
562		3869	Have_minsets
562		1953	Have_10_or_fewer_supersets
562		3800	Have_more_than_10_supersets
281		3858	Have_minsets
281		1906	Have_10_or_fewer_supersets
281		2912	Have_more_than_10_supersets
140		3207	Have_minsets
140		1505	Have_10_or_fewer_supersets
140		1745	Have_more_than_10_supersets
70		1369	Have_minsets
70		623		Have_10_or_fewer_supersets
70		809		Have_more_than_10_supersets
