min: 50
max: 562
Lexicon: MIN4
Multiplicty: Yes

[0.002994 - 0.0310077519379845]
365231	0.00816326530612245
8330058	0.00917431192660551
8687631	0.00925925925925926
4684328	0.0923076923076923
6632125	0.0121951219512195
290815	0.0133333333333333
7600796	0.0192307692307692
8518579	0.0222222222222222
164741	0.0232558139534884
6613542	0.025

[0.03125 - 0.0697674418604651]
4046304	0.0327868852459016
865754	0.037037037037037
1040558	0.0404040404040404
8725284	0.0454545454545455
4848336	0.0476190476190476
51282	0.0487804878048781
5802930	0.0563380281690141
6394968	0.0606060606060606
7596117	0.0652173913043478
3662825	0.0697674418604651

[0.0701754385964912 - 0.363636363636364]
2280808	0.0714285714285714
6614430	0.075
6111686	0.08
4524386	0.0833333333333333
4648255	0.0869565217391304
4769275	0.0882352941176471
6567777	0.0952380952380952
3908256	0.1
7868088	0.147058823529412
1036117	0.157894736842105
