"1","0","(","SEP","(","","","1"
"1","0",")","SEP",")","","","1"
"1","0","public","KW","public","OTHER","","1"
"1","0","static","KW","static","OTHER","","1"
"1","0","void","KW","void","TYPE","","1"
"1","0","main","ID","ID","OTHER","","1"
"1","0","[","SEP","[","","","1"
"1","0","]","SEP","]","","","1"
"1","0","String","ID","ID","TYPE","java.lang.String","1"
"1","0","args","ID","ID","VAR","java.lang.String[]","1"
"1","1","{","SEP","{","","","1"
"1","1","}","SEP","}","","","1"
"1","1",";","SEP",";","","","1"
"1","1",".","SEP",".","","","2"
"1","1","println","ID","ID","MCALL","java.io.PrintStream.println(java.lang.String)","1"
"1","1","(","SEP","(","","","1"
"1","1",")","SEP",")","","","1"
"1","1","System","ID","ID","TYPE","java.lang.System","1"
"1","1","out","ID","ID","VAR","java.io.PrintStream","1"
"1","1","""Hello World!""","LIT","STRLIT","","","1"
